Analysis Code for the RoCSI-CPR study – RoCSI-CPR analysis report
…
rownames(edna_only_taxonomy) <- NULL

edna_only_summary <- edna_only_prev %>%
  left_join(
    edna_only_taxonomy,
    by = "Genus"
  ) %>%
  arrange(desc(prevalence))

head(edna_only_summary, 30)

# A tibble: 30 × 9
   Genus       n_present n_samples prevalence category Phylum Class Order Family
   <chr>           <int>     <int>      <dbl> <chr>    <chr>  <chr> <chr> <chr> 
 1 Biecheleria        85        85      100   eDNA on… Myzoz… Dino… Sues… Biech…
 2 Gephyrocap…        85        85      100   eDNA on… Hapto… Cocc… Isoc… Noela…
 3 Haptolina          85        85      100   eDNA on… Hapto… Cocc… Prym… Prymn…
 4 Karenia            85        85      100   eDNA on… Myzoz… Dino… Gymn… Brach…
 5 Karlodinium        85        85      100   eDNA on… Myzoz… Dino… Gymn… Karen…
 6 Lepidodini…        85        85      100   eDNA on… Myzoz… Dino… Gymn… Gymno…
 7 Cyrtostrom…        84        85       98.8 eDNA on… Cilio… Olig… Olig… Cyrto…
 8 Gyrodinium         84        85       98.8 eDNA on… Myzoz… Dino… Gymn… Gymno…
 9 Torodinium         84        85       98.8 eDNA on… Myzoz… Dino… Gymn… Gymno…
10 Bathycoccus        83        85       97.6 eDNA on… Chlor… Mami… Mami… Bathy…
# ℹ 20 more rows
…
