Analysis code for the RoCSI-CPR study – RoCSI-CPR analysis report
…
Most prevalent CPR-only genera

cpr_only_prev <- calculate_taxon_prevalence(ps_cpr, cpr_only_genera, "Genus") |>
  dplyr::rename(Genus = taxon) |>
  mutate(category = "CPR only")

cpr_only_prev |>
  slice_max(prevalence, n = 20)

# A tibble: 25 × 5
   Genus              n_present n_samples prevalence category
   <chr>                  <int>     <int>      <dbl> <chr>   
 1 Para-Pseudocalanus        28        36      77.8  CPR only
 2 Dictyocysta               18        36      50    CPR only
 3 Rhabdosphaera             14        36      38.9  CPR only
 4 Proboscia                 11        36      30.6  CPR only
 5 Oxytoxum                   9        36      25    CPR only
 6 Lepas                      7        36      19.4  CPR only
 7 Spiniferites               7        36      19.4  CPR only
 8 Cylindrotheca              4        36      11.1  CPR only
 9 Acanthoica                 3        36       8.33 CPR only
10 Odontella                  3        36       8.33 CPR only
# ℹ 15 more rows
…
Taxonomic identity of eDNA-only genera

edna_only_taxonomy <- as.data.frame(tax_table(ps_edna)) |>
  filter(Genus %in% edna_only_genera) |>
  select(Phylum, Class, Order, Family, Genus) |>
  distinct()

edna_only_summary <- edna_only_prev |>
  left_join(edna_only_taxonomy, by = "Genus") |>
  arrange(desc(prevalence))

head(edna_only_summary, 30)

# A tibble: 30 × 9
   Genus       n_present n_samples prevalence category Phylum Class Order Family
   <chr>           <int>     <int>      <dbl> <chr>    <chr>  <chr> <chr> <chr> 
 1 Biecheleria        85        85      100   eDNA on… Myzoz… Dino… Sues… Biech…
 2 Haptolina          85        85      100   eDNA on… Hapto… Cocc… Prym… Prymn…
 3 Karenia            85        85      100   eDNA on… Myzoz… Dino… Gymn… Brach…
 4 Karlodinium        85        85      100   eDNA on… Myzoz… Dino… Gymn… Karen…
 5 Lepidodini…        85        85      100   eDNA on… Myzoz… Dino… Gymn… Gymno…
 6 Cyrtostrom…        84        85       98.8 eDNA on… Cilio… Olig… Olig… Cyrto…
 7 Gyrodinium         84        85       98.8 eDNA on… Myzoz… Dino… Gymn… Gymno…
 8 Torodinium         84        85       98.8 eDNA on… Myzoz… Dino… Gymn… Gymno…
 9 Bathycoccus        83        85       97.6 eDNA on… Chlor… Mami… Mami… Bathy…
10 Goniomonas         81        85       95.3 eDNA on… Crypt… Cryp… Cryp… Crypt…
# ℹ 20 more rows
…
